<?xml version="1.0" encoding="UTF-8"?>
<svg width="100pt" height="100pt" version="1.1" viewBox="0 0 100 100" xmlns="http://www.w3.org/2000/svg">
 <path d="m76.668 53.648h-2.6641c-1.3008-3.0312-4.2422-5.0234-7.5312-5.0234-1.0547 0-2.0859 0.21094-3.0391 0.59766 0.054687-0.38281 0.085937-0.76562 0.085937-1.1523 0-4.6289-3.6992-8.3945-8.2422-8.3945h-2.6641c-1.3047-3.0312-4.2461-5.0234-7.5312-5.0234-1.875 0-3.6641 0.64453-5.1094 1.8086-1.2812-3.0078-4.2305-5.0547-7.5547-5.0547-4.5 0-8.168 3.6992-8.2305 8.2656h-0.16797c-4.5391 0-8.2305 3.7656-8.2305 8.3945 0 4.6211 3.6914 8.3828 8.2305 8.3828h15.266c-1.3281 1.5078-2.1016 3.4688-2.1016 5.5781 0 4.6211 3.6914 8.3828 8.2305 8.3828h31.258c4.5469 0 8.2422-3.7617 8.2422-8.3828-0.003906-4.6172-3.6992-8.3789-8.2461-8.3789zm-58.883-5.5742c0-3.5273 2.7969-6.3945 6.2305-6.3945h1.2227c0.28516 0 0.55859-0.12109 0.74609-0.33594 0.19141-0.21484 0.28125-0.49609 0.24609-0.77734-0.027344-0.25781-0.050781-0.51562-0.050781-0.76953 0-3.5195 2.7969-6.3828 6.2305-6.3828 2.9531 0 5.5195 2.1484 6.1055 5.1133 0.074219 0.37891 0.36328 0.68359 0.73828 0.77734 0.37891 0.09375 0.77344-0.039063 1.0156-0.33984 1.1992-1.4688 2.9492-2.3086 4.8008-2.3086 2.6641 0 5.0312 1.7422 5.8945 4.3398 0.13672 0.41016 0.51953 0.6875 0.94922 0.6875h3.3555c3.4414 0 6.2422 2.8672 6.2422 6.3945 0 0.69141-0.10547 1.3633-0.31641 2-0.0625-0.13281-0.14453-0.25-0.21484-0.37891-0.089844-0.16406-0.17578-0.32422-0.27344-0.48047-0.11328-0.17969-0.23828-0.34766-0.36719-0.51562-0.10938-0.14453-0.21484-0.29297-0.33203-0.43359-0.13672-0.16016-0.28906-0.30859-0.4375-0.46094-0.125-0.125-0.24609-0.25781-0.37891-0.375-0.16016-0.14453-0.33594-0.26953-0.50781-0.39844-0.14062-0.10547-0.27344-0.21484-0.41797-0.3125-0.18359-0.12109-0.38281-0.22656-0.57422-0.33203-0.14844-0.082031-0.28906-0.17188-0.44141-0.24219-0.21094-0.10156-0.43359-0.17578-0.65234-0.25781-0.14844-0.054687-0.28906-0.12109-0.44141-0.16797-0.25-0.074218-0.50781-0.125-0.76562-0.17969-0.13281-0.027344-0.25781-0.066407-0.39062-0.085938-0.39453-0.058593-0.79688-0.09375-1.2031-0.09375-4.5039 0-8.1758 3.7031-8.2305 8.2773l-0.15625 0.007813c-0.31641 0-0.62891 0.019531-0.9375 0.054687-0.097656 0.011719-0.19531 0.035156-0.29297 0.050781-0.21094 0.03125-0.41797 0.066406-0.625 0.11328-0.11719 0.027343-0.23047 0.066406-0.34766 0.10156-0.18359 0.054688-0.36719 0.10547-0.55078 0.17188-0.125 0.046875-0.24609 0.10156-0.37109 0.15234-0.12891 0.054687-0.25781 0.097656-0.38672 0.16016h-17.883c-3.4336 0.003906-6.2305-2.8594-6.2305-6.3789zm58.883 20.34h-31.258c-3.4375 0-6.2305-2.8633-6.2305-6.3828 0-2.418 1.3086-4.5977 3.4141-5.6875 0.89062-0.46094 1.8398-0.69531 2.8164-0.69531h1.2227c0.28516 0 0.55469-0.12109 0.74609-0.33203 0.19141-0.21094 0.28125-0.49609 0.24609-0.77734-0.027344-0.25781-0.050781-0.51562-0.050781-0.78516 0-3.5195 2.7969-6.3828 6.2305-6.3828 2.9531 0 5.5195 2.1484 6.1055 5.1133 0.074219 0.37891 0.35938 0.67969 0.73438 0.77344 0.375 0.097657 0.76953-0.035156 1.0156-0.33203 0.23438-0.28516 0.45312-0.50781 0.69922-0.71484 1.1328-1.0234 2.5898-1.5898 4.1055-1.5898 2.668 0 5.0352 1.7422 5.8945 4.3398 0.13672 0.41016 0.51953 0.6875 0.94922 0.6875h3.3555c3.4414 0 6.2422 2.8633 6.2422 6.3828 0.003906 3.5234-2.7969 6.3828-6.2383 6.3828z"/>
</svg>
